{
    "items": [
        {
            "keeper": "Заятников",
            "reciever": "Ашан",
            "supplier": "Coca-Cola Company",
            "title": "Coca-Cola"
        },
        {
            "keeper": "Девочкин",
            "reciever": "Пятерочка",
            "supplier": "Завод",
            "title": "Колбаса"
        },
        {
            "keeper": "Заятников",
            "reciever": "Дикси",
            "supplier": "Фабрика",
            "title": "Шоколад"
        },
        {
            "keeper": "Зенченко",
            "reciever": "Продавец в переходе",
            "supplier": "Дача",
            "title": "Яблоки"
        },
        {
            "keeper": "qwe",
            "reciever": "qwe",
            "supplier": "qwe",
            "title": "321"
        },
        {
            "keeper": "4",
            "reciever": "3",
            "supplier": "2",
            "title": "1"
        }
    ]
}
